{
    "$schema": "https://raw.githubusercontent.com/martinring/tmlanguage/master/tmlanguage.json",
    "name": "sql",
    "patterns": [{
            "include": "#keywords"
        },
        {
            "include": "#strings"
        },
        {
            "include": "#xxx"
        }
    ],
    "repository": {
        "keywords": {
            "patterns": [{
                "name": "keyword.control.sql",
                "match": "\\b(if|while|for|return|asdf)\\b"
            }]
        },
        "strings": {
            "name": "string.quoted.double.sql",
            "begin": "\"",
            "end": "\"",
            "patterns": [{
                "name": "constant.character.escape.sql",
                "match": "\\\\."
            }]
        },
        "xxx": {
            "name": "keyword.control.sql",
            "patterns": [{
                "name": "constant.character.escape.sql",
                "match": "asdf"
            }]
        }
    },
    "scopeName": "source.sql"
}